Race,Class,Net Worth,Endurance,Vitality,Strength,Dexterity,Resistance,Intelligence,Faith,Attunement,Weapon of Choice,cluster
Ork,Necromancer,972000.0,23.0,77.0,80.0,32.0,15.0,25.0,89.0,15.0,Axe,1
Ork,Cleric,65000.0,33.0,41.0,91.0,52.0,87.0,48.0,34.0,17.0,Hammer,1
Elf,Cleric,284000.0,5.0,58.0,21.0,75.0,1.0,28.0,97.0,96.0,Dagger,0
Ork,Rogue,646000.0,52.0,60.0,99.0,91.0,17.0,19.0,33.0,38.0,Dagger,0
Elf,Warrior,530000.0,3.0,40.0,85.0,66.0,27.0,18.0,21.0,93.0,Sword,5
Human,Cleric,452000.0,73.0,71.0,69.0,61.0,8.0,65.0,96.0,45.0,Hammer,1
Human,Sorcerer,768000.0,72.0,55.0,49.0,42.0,40.0,7.0,36.0,57.0,Dagger,2
Ork,Necromancer,21000.0,73.0,11.0,95.0,45.0,44.0,91.0,42.0,10.0,Axe,1
Ork,Druid,733000.0,47.0,95.0,91.0,48.0,48.0,39.0,20.0,12.0,Axe,1
Elf,Druid,472000.0,54.0,80.0,40.0,63.0,72.0,34.0,54.0,95.0,Bow,0
Halfling,Necromancer,72000.0,12.0,61.0,50.0,72.0,51.0,37.0,60.0,60.0,Spear,4
Human,Rogue,779000.0,95.0,4.0,67.0,93.0,97.0,61.0,63.0,40.0,Dagger,0
Gnome,Druid,246000.0,37.0,32.0,20.0,65.0,9.0,85.0,64.0,73.0,Crossbow,2
Ork,Warrior,265000.0,52.0,54.0,99.0,34.0,46.0,74.0,56.0,13.0,Sword,5
Dwarf,Rogue,940000.0,43.0,73.0,95.0,98.0,69.0,51.0,78.0,52.0,Dagger,0
Ork,Paladin,845000.0,44.0,7.0,96.0,31.0,71.0,36.0,31.0,32.0,Axe,1
Gnome,Mage,960000.0,40.0,94.0,42.0,48.0,97.0,25.0,71.0,80.0,Staff,3
Elf,Rogue,39000.0,51.0,71.0,47.0,88.0,24.0,60.0,65.0,88.0,Dagger,0
Dwarf,Paladin,484000.0,5.0,61.0,82.0,37.0,11.0,7.0,91.0,54.0,Hammer,1
Dwarf,Necromancer,205000.0,39.0,99.0,98.0,41.0,40.0,55.0,71.0,44.0,Hammer,1
Dwarf,Paladin,211000.0,18.0,17.0,72.0,31.0,51.0,34.0,98.0,36.0,Axe,1
Ork,Sorcerer,248000.0,99.0,47.0,96.0,29.0,62.0,35.0,45.0,13.0,Hammer,1
Halfling,Druid,931000.0,86.0,43.0,39.0,67.0,44.0,48.0,86.0,55.0,Dagger,0
Gnome,Warrior,1764000.0,57.0,29.0,94.0,40.0,80.0,20.0,44.0,50.0,Sword,5
Gnome,Paladin,482000.0,56.0,78.0,29.0,55.0,67.0,32.0,94.0,55.0,Crossbow,2
Elf,Mage,567000.0,92.0,68.0,37.0,96.0,4.0,7.0,50.0,90.0,Staff,3
Halfling,Rogue,259000.0,2.0,31.0,34.0,88.0,10.0,7.0,56.0,68.0,Dagger,0
Dwarf,Warrior,182000.0,34.0,71.0,92.0,35.0,61.0,31.0,70.0,49.0,Sword,5
Gnome,Bard,828000.0,11.0,75.0,25.0,44.0,92.0,26.0,35.0,64.0,Wand,2
Human,Necromancer,839000.0,51.0,3.0,52.0,62.0,42.0,75.0,2.0,45.0,Axe,2
Human,Bard,877000.0,15.0,84.0,50.0,64.0,75.0,48.0,19.0,66.0,Hammer,1
Gnome,Sorcerer,1044000.0,32.0,73.0,35.0,50.0,55.0,68.0,88.0,63.0,Crossbow,2
Gnome,Paladin,1468000.0,63.0,57.0,28.0,41.0,42.0,43.0,22.0,65.0,Dagger,2
Human,Mage,375000.0,18.0,91.0,45.0,61.0,65.0,67.0,17.0,98.0,Staff,3
Gnome,Cleric,874000.0,30.0,94.0,27.0,67.0,80.0,81.0,84.0,75.0,Crossbow,2
Gnome,Bard,882000.0,97.0,5.0,27.0,68.0,97.0,43.0,29.0,73.0,Crossbow,2
Halfling,Warrior,469000.0,70.0,67.0,97.0,70.0,44.0,38.0,46.0,78.0,Sword,5
Gnome,Warrior,710000.0,56.0,77.0,80.0,59.0,87.0,35.0,17.0,54.0,Sword,5
Gnome,Bard,938000.0,50.0,7.0,43.0,48.0,85.0,49.0,99.0,60.0,Dagger,2
Halfling,Warrior,382000.0,18.0,83.0,90.0,73.0,82.0,81.0,44.0,61.0,Sword,5
Gnome,Necromancer,868000.0,64.0,25.0,29.0,52.0,47.0,17.0,66.0,60.0,Dagger,2
Elf,Ranger,402000.0,82.0,41.0,27.0,98.0,42.0,47.0,19.0,97.0,Bow,0
Dwarf,Ranger,188000.0,70.0,47.0,70.0,84.0,27.0,36.0,96.0,41.0,Bow,0
Ork,Sorcerer,356000.0,72.0,88.0,84.0,36.0,68.0,55.0,69.0,24.0,Axe,1
Dwarf,Paladin,318000.0,37.0,94.0,83.0,36.0,95.0,40.0,35.0,49.0,Flail,2
Halfling,Bard,123000.0,21.0,23.0,46.0,63.0,4.0,81.0,94.0,79.0,Dagger,0
Elf,Ranger,40000.0,52.0,35.0,44.0,96.0,22.0,25.0,53.0,76.0,Bow,0
Elf,Warrior,89000.0,75.0,88.0,81.0,64.0,35.0,93.0,32.0,84.0,Sword,5
Human,Warrior,522000.0,28.0,59.0,98.0,48.0,66.0,78.0,90.0,64.0,Sword,5
Dwarf,Druid,929000.0,98.0,43.0,89.0,38.0,7.0,93.0,55.0,52.0,Axe,1
Human,Rogue,18000.0,25.0,15.0,48.0,90.0,45.0,99.0,18.0,52.0,Dagger,0
Dwarf,Mage,814000.0,23.0,23.0,84.0,35.0,18.0,91.0,25.0,95.0,Staff,3
Halfling,Paladin,927000.0,22.0,94.0,42.0,69.0,34.0,54.0,33.0,73.0,Spear,4
Gnome,Warrior,832000.0,87.0,28.0,99.0,42.0,79.0,51.0,15.0,72.0,Sword,5
Gnome,Mage,500000.0,92.0,77.0,23.0,47.0,11.0,44.0,46.0,96.0,Staff,3
Gnome,Mage,288000.0,27.0,91.0,20.0,69.0,90.0,77.0,92.0,93.0,Staff,3
Gnome,Bard,1768000.0,8.0,31.0,26.0,62.0,43.0,62.0,39.0,67.0,Wand,2
Gnome,Ranger,1292000.0,82.0,86.0,22.0,91.0,17.0,85.0,55.0,61.0,Bow,0
Gnome,Cleric,1194000.0,38.0,9.0,40.0,45.0,45.0,57.0,47.0,55.0,Crossbow,2
Elf,Sorcerer,381000.0,54.0,19.0,26.0,74.0,93.0,7.0,87.0,85.0,Bow,0
Elf,Sorcerer,536000.0,54.0,28.0,40.0,73.0,98.0,87.0,52.0,94.0,Staff,3
Halfling,Rogue,94000.0,71.0,40.0,39.0,94.0,45.0,30.0,22.0,62.0,Dagger,0
Halfling,Paladin,196000.0,92.0,68.0,44.0,78.0,50.0,41.0,47.0,50.0,Crossbow,2
Halfling,Sorcerer,207000.0,78.0,61.0,50.0,69.0,77.0,53.0,84.0,74.0,Crossbow,2
Halfling,Ranger,743000.0,32.0,38.0,52.0,98.0,26.0,16.0,93.0,70.0,Bow,0
Halfling,Druid,381000.0,36.0,52.0,38.0,66.0,27.0,82.0,21.0,70.0,Dagger,0
Dwarf,Paladin,753000.0,59.0,10.0,73.0,36.0,61.0,53.0,69.0,41.0,Hammer,1
Human,Necromancer,53000.0,57.0,30.0,53.0,40.0,90.0,40.0,42.0,51.0,Wand,2
Human,Necromancer,16000.0,42.0,48.0,56.0,65.0,11.0,99.0,22.0,67.0,Bow,0
Gnome,Rogue,1584000.0,86.0,95.0,31.0,98.0,30.0,97.0,37.0,58.0,Dagger,0
Human,Ranger,890000.0,79.0,86.0,44.0,87.0,51.0,36.0,98.0,43.0,Bow,0
Gnome,Sorcerer,1472000.0,81.0,99.0,34.0,60.0,56.0,79.0,24.0,57.0,Wand,2
Halfling,Sorcerer,522000.0,37.0,78.0,35.0,65.0,21.0,82.0,20.0,70.0,Crossbow,2
Human,Sorcerer,174000.0,61.0,34.0,53.0,42.0,14.0,34.0,7.0,55.0,Bow,2
Gnome,Mage,130000.0,77.0,42.0,34.0,61.0,44.0,15.0,54.0,92.0,Staff,3
Elf,Ranger,277000.0,78.0,63.0,22.0,85.0,19.0,51.0,83.0,72.0,Bow,0
Dwarf,Necromancer,828000.0,11.0,28.0,91.0,37.0,18.0,89.0,68.0,35.0,Flail,2
Gnome,Necromancer,1872000.0,1.0,70.0,25.0,60.0,54.0,22.0,71.0,77.0,Crossbow,2
Gnome,Warrior,646000.0,13.0,89.0,87.0,69.0,74.0,31.0,66.0,64.0,Sword,5
Ork,Paladin,234000.0,13.0,24.0,99.0,40.0,83.0,25.0,45.0,26.0,Hammer,1
Ork,Mage,66000.0,3.0,27.0,90.0,59.0,70.0,94.0,42.0,90.0,Staff,3
Dwarf,Mage,23000.0,3.0,36.0,96.0,38.0,1.0,23.0,59.0,82.0,Staff,3
Elf,Cleric,307000.0,53.0,86.0,43.0,78.0,57.0,61.0,67.0,95.0,Bow,0
Human,Rogue,80000.0,85.0,97.0,41.0,86.0,8.0,53.0,57.0,57.0,Dagger,0
Elf,Warrior,197000.0,45.0,42.0,87.0,63.0,51.0,28.0,61.0,72.0,Sword,5
Halfling,Warrior,885000.0,45.0,39.0,98.0,61.0,78.0,34.0,33.0,55.0,Sword,5
Dwarf,Druid,344000.0,66.0,32.0,76.0,52.0,80.0,37.0,18.0,51.0,Axe,1
Human,Mage,482000.0,27.0,19.0,48.0,43.0,63.0,45.0,43.0,97.0,Staff,3
Gnome,Rogue,478000.0,6.0,95.0,28.0,82.0,97.0,74.0,49.0,74.0,Dagger,0
Halfling,Warrior,939000.0,98.0,69.0,90.0,84.0,49.0,93.0,79.0,73.0,Sword,5
Dwarf,Sorcerer,666000.0,68.0,70.0,86.0,54.0,64.0,35.0,28.0,47.0,Hammer,1
Dwarf,Ranger,560000.0,24.0,85.0,77.0,83.0,97.0,38.0,96.0,47.0,Bow,0
Dwarf,Bard,592000.0,80.0,68.0,83.0,39.0,3.0,62.0,59.0,43.0,Axe,1
Halfling,Druid,304000.0,10.0,16.0,45.0,85.0,29.0,87.0,70.0,76.0,Crossbow,2
Elf,Ranger,943000.0,70.0,60.0,40.0,87.0,29.0,50.0,65.0,86.0,Bow,0
Halfling,Paladin,520000.0,56.0,69.0,49.0,87.0,39.0,53.0,25.0,73.0,Crossbow,2
Elf,Rogue,291000.0,19.0,63.0,24.0,87.0,33.0,12.0,98.0,93.0,Dagger,0
Elf,Paladin,724000.0,37.0,39.0,32.0,95.0,72.0,46.0,27.0,74.0,Dagger,0
Halfling,Mage,661000.0,22.0,88.0,51.0,81.0,74.0,68.0,32.0,95.0,Staff,3
Human,Paladin,983000.0,2.0,35.0,53.0,48.0,56.0,29.0,70.0,46.0,Sword,5
Gnome,Paladin,1992000.0,97.0,11.0,33.0,56.0,54.0,23.0,37.0,52.0,Wand,2
Elf,Ranger,836000.0,38.0,10.0,28.0,95.0,63.0,89.0,61.0,74.0,Bow,0
Elf,Mage,785000.0,71.0,83.0,40.0,62.0,23.0,58.0,34.0,97.0,Staff,3
Human,Ranger,326000.0,38.0,38.0,60.0,86.0,21.0,37.0,61.0,52.0,Bow,0
Elf,Mage,736000.0,71.0,76.0,26.0,67.0,26.0,9.0,46.0,95.0,Staff,3
Elf,Warrior,400000.0,25.0,25.0,98.0,92.0,42.0,17.0,94.0,77.0,Sword,5
Dwarf,Druid,266000.0,25.0,47.0,94.0,30.0,28.0,99.0,70.0,56.0,Axe,1
Dwarf,Bard,364000.0,39.0,78.0,82.0,55.0,40.0,4.0,66.0,45.0,Axe,1
Ork,Bard,488000.0,63.0,86.0,98.0,54.0,68.0,92.0,63.0,21.0,Hammer,1
Halfling,Druid,565000.0,91.0,73.0,53.0,63.0,69.0,25.0,14.0,69.0,Spear,4
Ork,Ranger,515000.0,4.0,70.0,84.0,85.0,9.0,95.0,59.0,26.0,Bow,0
Ork,Warrior,995000.0,19.0,20.0,82.0,27.0,62.0,8.0,11.0,15.0,Sword,5
Ork,Paladin,698000.0,86.0,62.0,89.0,52.0,78.0,89.0,21.0,14.0,Hammer,1
Human,Warrior,25000.0,49.0,96.0,94.0,40.0,85.0,94.0,97.0,62.0,Sword,5
Halfling,Necromancer,173000.0,22.0,4.0,54.0,85.0,79.0,36.0,39.0,51.0,Spear,4
Elf,Mage,203000.0,85.0,27.0,24.0,65.0,85.0,15.0,29.0,81.0,Staff,3
Gnome,Bard,1400000.0,64.0,88.0,37.0,53.0,86.0,61.0,39.0,59.0,Wand,2
Human,Necromancer,159000.0,96.0,44.0,40.0,57.0,92.0,22.0,26.0,49.0,Hammer,1
Dwarf,Paladin,940000.0,20.0,53.0,71.0,32.0,36.0,18.0,27.0,48.0,Flail,2
Dwarf,Sorcerer,306000.0,70.0,24.0,76.0,35.0,64.0,47.0,45.0,37.0,Axe,1
Dwarf,Warrior,40000.0,16.0,26.0,99.0,51.0,71.0,8.0,75.0,33.0,Sword,5
Ork,Ranger,332000.0,19.0,78.0,95.0,85.0,31.0,89.0,86.0,18.0,Bow,0
Dwarf,Bard,755000.0,85.0,98.0,78.0,58.0,74.0,81.0,86.0,59.0,Flail,2
Gnome,Druid,50000.0,88.0,99.0,27.0,64.0,23.0,91.0,97.0,70.0,Crossbow,2
Dwarf,Cleric,210000.0,95.0,83.0,98.0,36.0,15.0,41.0,44.0,52.0,Hammer,1
Human,Ranger,965000.0,60.0,23.0,57.0,83.0,3.0,55.0,83.0,41.0,Bow,0
Elf,Ranger,205000.0,68.0,98.0,29.0,98.0,97.0,9.0,68.0,73.0,Bow,0
Elf,Paladin,128000.0,28.0,22.0,41.0,79.0,92.0,75.0,93.0,77.0,Staff,3
Elf,Rogue,365000.0,24.0,70.0,48.0,98.0,40.0,66.0,87.0,70.0,Dagger,0
Ork,Cleric,148000.0,75.0,20.0,88.0,30.0,39.0,26.0,31.0,18.0,Mace,1
Dwarf,Druid,435000.0,52.0,88.0,97.0,47.0,25.0,69.0,32.0,55.0,Flail,2
Dwarf,Paladin,780000.0,93.0,19.0,77.0,50.0,78.0,74.0,82.0,41.0,Hammer,1
Dwarf,Cleric,662000.0,17.0,80.0,99.0,42.0,46.0,43.0,1.0,38.0,Flail,2
Halfling,Cleric,236000.0,16.0,40.0,47.0,82.0,53.0,43.0,27.0,53.0,Dagger,0
Halfling,Druid,477000.0,57.0,13.0,31.0,72.0,96.0,53.0,91.0,76.0,Crossbow,2
Halfling,Sorcerer,951000.0,9.0,14.0,44.0,85.0,51.0,59.0,61.0,58.0,Crossbow,2
Ork,Paladin,15000.0,30.0,45.0,86.0,40.0,91.0,64.0,6.0,34.0,Hammer,1
Dwarf,Necromancer,664000.0,54.0,27.0,88.0,35.0,63.0,45.0,32.0,41.0,Flail,2
Human,Necromancer,987000.0,66.0,40.0,45.0,46.0,32.0,47.0,75.0,50.0,Axe,2
Gnome,Rogue,1784000.0,38.0,97.0,26.0,96.0,71.0,59.0,97.0,59.0,Dagger,0
Halfling,Mage,788000.0,13.0,26.0,53.0,68.0,98.0,43.0,67.0,89.0,Staff,3
Human,Bard,415000.0,12.0,39.0,63.0,57.0,49.0,17.0,90.0,42.0,Axe,2
Gnome,Warrior,634000.0,78.0,97.0,96.0,49.0,27.0,98.0,22.0,60.0,Sword,5
Elf,Paladin,411000.0,2.0,58.0,30.0,99.0,21.0,70.0,18.0,86.0,Bow,0
Elf,Sorcerer,928000.0,35.0,97.0,29.0,89.0,69.0,66.0,98.0,78.0,Dagger,0
Human,Mage,804000.0,73.0,37.0,52.0,46.0,73.0,94.0,11.0,91.0,Staff,3
Human,Rogue,402000.0,40.0,31.0,52.0,90.0,11.0,91.0,84.0,54.0,Dagger,0
Human,Druid,253000.0,71.0,50.0,50.0,40.0,97.0,6.0,30.0,56.0,Staff,3
Dwarf,Necromancer,33000.0,51.0,14.0,83.0,52.0,19.0,28.0,69.0,44.0,Hammer,1
Dwarf,Cleric,808000.0,28.0,16.0,82.0,59.0,83.0,54.0,74.0,45.0,Flail,2
Ork,Paladin,265000.0,6.0,89.0,96.0,58.0,8.0,40.0,4.0,23.0,Axe,1
Elf,Ranger,212000.0,30.0,48.0,24.0,87.0,52.0,47.0,29.0,71.0,Bow,0
Ork,Ranger,98000.0,68.0,6.0,91.0,94.0,11.0,17.0,52.0,32.0,Bow,0
Human,Rogue,639000.0,42.0,28.0,46.0,94.0,40.0,56.0,72.0,65.0,Dagger,0
Dwarf,Necromancer,699000.0,51.0,96.0,88.0,57.0,68.0,67.0,68.0,43.0,Flail,2
Human,Paladin,568000.0,48.0,44.0,51.0,45.0,28.0,47.0,49.0,54.0,Sword,5
Gnome,Mage,1520000.0,22.0,9.0,39.0,51.0,29.0,90.0,86.0,83.0,Staff,3
Ork,Bard,690000.0,64.0,53.0,82.0,53.0,91.0,35.0,64.0,32.0,Hammer,1
Elf,Ranger,475000.0,11.0,51.0,49.0,97.0,39.0,38.0,11.0,78.0,Bow,0
Ork,Rogue,94000.0,8.0,48.0,85.0,91.0,28.0,87.0,34.0,19.0,Dagger,0
Halfling,Bard,869000.0,16.0,4.0,33.0,71.0,85.0,83.0,4.0,78.0,Dagger,0
Human,Bard,313000.0,68.0,94.0,66.0,53.0,41.0,63.0,72.0,59.0,Wand,2
Dwarf,Cleric,470000.0,25.0,96.0,92.0,31.0,10.0,78.0,14.0,52.0,Flail,2
Human,Rogue,600000.0,53.0,83.0,53.0,88.0,49.0,27.0,5.0,57.0,Dagger,0
Dwarf,Druid,539000.0,89.0,73.0,76.0,33.0,23.0,70.0,36.0,34.0,Axe,1
Ork,Bard,993000.0,37.0,63.0,89.0,46.0,83.0,19.0,95.0,25.0,Hammer,1
Human,Mage,541000.0,93.0,14.0,65.0,64.0,3.0,68.0,65.0,98.0,Staff,3
Gnome,Cleric,498000.0,34.0,18.0,37.0,47.0,13.0,97.0,28.0,75.0,Wand,2
Elf,Paladin,741000.0,70.0,74.0,33.0,93.0,11.0,53.0,64.0,71.0,Bow,0
Elf,Mage,101000.0,80.0,49.0,29.0,81.0,93.0,90.0,99.0,84.0,Staff,3
Dwarf,Mage,492000.0,52.0,89.0,86.0,34.0,21.0,93.0,12.0,85.0,Staff,3
Dwarf,Necromancer,786000.0,63.0,86.0,81.0,42.0,98.0,33.0,67.0,47.0,Hammer,1
Dwarf,Bard,597000.0,14.0,23.0,77.0,49.0,26.0,99.0,15.0,48.0,Axe,2
Human,Ranger,765000.0,92.0,14.0,67.0,91.0,85.0,75.0,46.0,66.0,Bow,0
Human,Cleric,760000.0,92.0,21.0,69.0,48.0,54.0,48.0,35.0,45.0,Wand,2
Elf,Mage,882000.0,64.0,27.0,30.0,73.0,26.0,41.0,2.0,95.0,Staff,3
Gnome,Bard,564000.0,39.0,70.0,27.0,52.0,93.0,85.0,91.0,69.0,Dagger,2
Halfling,Paladin,419000.0,14.0,87.0,55.0,86.0,40.0,99.0,76.0,61.0,Spear,4
Halfling,Paladin,131000.0,34.0,66.0,51.0,69.0,30.0,27.0,75.0,56.0,Spear,4
Ork,Druid,593000.0,58.0,88.0,83.0,22.0,2.0,18.0,39.0,16.0,Mace,1
Halfling,Necromancer,541000.0,6.0,71.0,50.0,61.0,49.0,88.0,37.0,53.0,Spear,4
Dwarf,Necromancer,733000.0,40.0,71.0,83.0,52.0,53.0,41.0,19.0,43.0,Axe,1
Gnome,Sorcerer,1318000.0,21.0,73.0,35.0,50.0,8.0,50.0,30.0,67.0,Crossbow,2
Elf,Cleric,451000.0,18.0,14.0,46.0,78.0,37.0,48.0,2.0,93.0,Dagger,0
Elf,Ranger,237000.0,40.0,28.0,46.0,81.0,30.0,89.0,27.0,78.0,Bow,0
Dwarf,Bard,106000.0,53.0,47.0,70.0,33.0,9.0,8.0,52.0,49.0,Axe,1
Halfling,Cleric,848000.0,3.0,50.0,54.0,86.0,7.0,7.0,17.0,55.0,Spear,4
Dwarf,Sorcerer,36000.0,98.0,69.0,82.0,59.0,72.0,14.0,61.0,47.0,Hammer,1
Gnome,Bard,164000.0,71.0,54.0,29.0,65.0,42.0,64.0,66.0,60.0,Crossbow,2
Gnome,Sorcerer,1482000.0,4.0,46.0,22.0,65.0,60.0,77.0,81.0,53.0,Wand,2
Halfling,Paladin,807000.0,59.0,30.0,52.0,68.0,25.0,3.0,70.0,58.0,Crossbow,2
Halfling,Necromancer,325000.0,56.0,8.0,40.0,79.0,71.0,71.0,2.0,56.0,Dagger,0
Gnome,Paladin,846000.0,80.0,44.0,37.0,49.0,66.0,89.0,32.0,76.0,Wand,2
Ork,Necromancer,790000.0,2.0,62.0,95.0,50.0,71.0,34.0,93.0,31.0,Hammer,1
Gnome,Sorcerer,1844000.0,21.0,18.0,44.0,50.0,7.0,91.0,22.0,51.0,Dagger,2
Gnome,Necromancer,1574000.0,3.0,31.0,47.0,44.0,76.0,23.0,3.0,78.0,Wand,2
Dwarf,Warrior,365000.0,67.0,20.0,97.0,58.0,71.0,99.0,36.0,41.0,Sword,5
Dwarf,Rogue,816000.0,11.0,44.0,87.0,83.0,90.0,25.0,68.0,47.0,Dagger,0
Gnome,Druid,432000.0,91.0,4.0,40.0,68.0,71.0,13.0,83.0,65.0,Crossbow,2
Ork,Ranger,652000.0,44.0,25.0,95.0,84.0,40.0,93.0,85.0,21.0,Bow,0
Dwarf,Druid,252000.0,65.0,51.0,83.0,57.0,83.0,87.0,26.0,51.0,Hammer,1
Human,Warrior,758000.0,19.0,16.0,97.0,40.0,23.0,73.0,90.0,67.0,Sword,5
Human,Warrior,194000.0,55.0,27.0,97.0,49.0,97.0,82.0,10.0,46.0,Sword,5
Dwarf,Mage,712000.0,88.0,7.0,95.0,59.0,26.0,73.0,86.0,94.0,Staff,3
Dwarf,Mage,469000.0,1.0,85.0,97.0,53.0,17.0,90.0,60.0,98.0,Staff,3
Ork,Warrior,751000.0,60.0,18.0,99.0,24.0,5.0,88.0,69.0,25.0,Sword,5
Dwarf,Druid,545000.0,49.0,68.0,86.0,36.0,24.0,63.0,40.0,44.0,Axe,1
Ork,Ranger,947000.0,33.0,54.0,97.0,98.0,44.0,55.0,63.0,15.0,Bow,0
Ork,Necromancer,439000.0,30.0,8.0,94.0,31.0,16.0,74.0,82.0,24.0,Hammer,1
Ork,Mage,801000.0,71.0,44.0,90.0,20.0,77.0,79.0,55.0,89.0,Staff,3
Elf,Mage,745000.0,42.0,56.0,35.0,63.0,83.0,98.0,75.0,93.0,Staff,3
Halfling,Bard,282000.0,12.0,92.0,48.0,69.0,72.0,86.0,11.0,62.0,Dagger,0
Ork,Cleric,451000.0,98.0,94.0,92.0,34.0,74.0,58.0,61.0,34.0,Hammer,1
Halfling,Necromancer,480000.0,84.0,93.0,39.0,75.0,45.0,55.0,70.0,72.0,Crossbow,2
Dwarf,Cleric,45000.0,96.0,95.0,99.0,32.0,8.0,56.0,23.0,45.0,Axe,1
Dwarf,Warrior,135000.0,5.0,44.0,85.0,51.0,71.0,38.0,75.0,54.0,Sword,5
Human,Paladin,808000.0,96.0,19.0,40.0,55.0,20.0,66.0,62.0,63.0,Flail,2
Ork,Sorcerer,462000.0,63.0,59.0,88.0,36.0,64.0,31.0,65.0,19.0,Axe,1
Human,Sorcerer,468000.0,24.0,33.0,49.0,61.0,14.0,43.0,24.0,59.0,Mace,2
Ork,Ranger,558000.0,44.0,37.0,96.0,87.0,93.0,52.0,21.0,22.0,Bow,0
Ork,Necromancer,204000.0,21.0,73.0,87.0,22.0,26.0,79.0,52.0,17.0,Hammer,1
Ork,Bard,428000.0,4.0,16.0,89.0,25.0,46.0,42.0,23.0,33.0,Axe,1
Dwarf,Druid,766000.0,14.0,59.0,80.0,36.0,59.0,14.0,27.0,50.0,Hammer,1
Ork,Ranger,549000.0,48.0,66.0,94.0,86.0,55.0,44.0,98.0,28.0,Bow,0
Halfling,Necromancer,478000.0,28.0,19.0,37.0,86.0,10.0,72.0,20.0,52.0,Dagger,0
Ork,Warrior,217000.0,67.0,39.0,94.0,42.0,25.0,54.0,71.0,34.0,Sword,5
Dwarf,Paladin,86000.0,25.0,76.0,80.0,42.0,96.0,8.0,1.0,36.0,Hammer,1
Gnome,Sorcerer,1446000.0,3.0,83.0,26.0,62.0,34.0,48.0,72.0,72.0,Dagger,2
Gnome,Paladin,610000.0,48.0,47.0,22.0,51.0,44.0,87.0,72.0,59.0,Wand,2
Gnome,Rogue,770000.0,10.0,21.0,25.0,81.0,27.0,78.0,30.0,64.0,Dagger,0
Halfling,Rogue,828000.0,91.0,70.0,43.0,88.0,45.0,90.0,44.0,56.0,Dagger,0
Dwarf,Ranger,9000.0,28.0,84.0,72.0,92.0,29.0,64.0,28.0,32.0,Bow,0
Halfling,Cleric,990000.0,39.0,8.0,48.0,81.0,19.0,96.0,26.0,65.0,Crossbow,2
Halfling,Rogue,791000.0,14.0,56.0,45.0,88.0,83.0,25.0,38.0,53.0,Dagger,0
Elf,Cleric,637000.0,77.0,74.0,35.0,84.0,56.0,30.0,49.0,92.0,Staff,3
Ork,Rogue,418000.0,57.0,74.0,94.0,89.0,90.0,53.0,96.0,26.0,Dagger,0
Ork,Necromancer,19000.0,10.0,71.0,83.0,47.0,68.0,47.0,70.0,28.0,Axe,1
Human,Bard,511000.0,19.0,59.0,60.0,54.0,99.0,21.0,56.0,52.0,Spear,4
Ork,Paladin,483000.0,54.0,8.0,90.0,20.0,9.0,84.0,90.0,31.0,Mace,1
Human,Druid,102000.0,95.0,83.0,67.0,46.0,31.0,90.0,85.0,41.0,Flail,2
Human,Rogue,912000.0,24.0,49.0,40.0,90.0,2.0,86.0,55.0,43.0,Dagger,0
Halfling,Sorcerer,547000.0,57.0,30.0,36.0,74.0,60.0,62.0,90.0,72.0,Crossbow,2
Halfling,Warrior,417000.0,83.0,16.0,89.0,86.0,12.0,24.0,46.0,51.0,Sword,5
Ork,Rogue,430000.0,6.0,15.0,96.0,97.0,91.0,93.0,39.0,33.0,Dagger,0
Elf,Necromancer,424000.0,58.0,91.0,32.0,91.0,40.0,29.0,59.0,80.0,Bow,0
Human,Ranger,973000.0,42.0,79.0,45.0,94.0,20.0,55.0,84.0,40.0,Bow,0
Dwarf,Rogue,742000.0,40.0,73.0,96.0,81.0,97.0,87.0,41.0,40.0,Dagger,0
Elf,Mage,901000.0,32.0,50.0,41.0,82.0,25.0,43.0,43.0,80.0,Staff,3
Elf,Bard,95000.0,19.0,68.0,28.0,94.0,66.0,20.0,57.0,73.0,Staff,3
Halfling,Ranger,644000.0,52.0,34.0,48.0,93.0,93.0,11.0,10.0,52.0,Bow,0
Human,Bard,717000.0,74.0,60.0,46.0,55.0,64.0,97.0,57.0,44.0,Dagger,0
Dwarf,Paladin,232000.0,34.0,99.0,85.0,44.0,98.0,23.0,85.0,48.0,Axe,1
Dwarf,Cleric,398000.0,65.0,24.0,85.0,58.0,99.0,71.0,18.0,38.0,Hammer,1
Ork,Paladin,321000.0,6.0,44.0,91.0,50.0,15.0,36.0,67.0,39.0,Hammer,1
Ork,Cleric,277000.0,98.0,90.0,81.0,39.0,32.0,69.0,30.0,34.0,Axe,1
Gnome,Paladin,950000.0,71.0,82.0,43.0,68.0,32.0,64.0,62.0,67.0,Wand,2
Dwarf,Necromancer,340000.0,26.0,92.0,83.0,32.0,10.0,36.0,51.0,52.0,Hammer,1
Ork,Cleric,268000.0,46.0,48.0,94.0,40.0,50.0,10.0,89.0,18.0,Hammer,1
Halfling,Rogue,277000.0,50.0,81.0,54.0,84.0,51.0,62.0,65.0,71.0,Dagger,0
Dwarf,Cleric,66000.0,25.0,55.0,99.0,43.0,30.0,20.0,16.0,37.0,Hammer,1
Elf,Cleric,754000.0,13.0,80.0,42.0,92.0,37.0,51.0,86.0,99.0,Bow,0
Dwarf,Cleric,327000.0,92.0,55.0,95.0,56.0,91.0,80.0,82.0,45.0,Axe,1
Human,Sorcerer,655000.0,75.0,96.0,43.0,46.0,41.0,92.0,64.0,50.0,Flail,2
Dwarf,Ranger,307000.0,20.0,63.0,78.0,83.0,47.0,23.0,14.0,33.0,Bow,0
Human,Mage,733000.0,54.0,13.0,67.0,64.0,35.0,68.0,45.0,92.0,Staff,3
Human,Mage,790000.0,76.0,32.0,42.0,51.0,42.0,46.0,98.0,85.0,Staff,3
Human,Sorcerer,50000.0,55.0,12.0,44.0,44.0,7.0,77.0,13.0,51.0,Axe,2
Human,Mage,953000.0,94.0,3.0,40.0,51.0,92.0,66.0,41.0,98.0,Staff,3
Halfling,Rogue,360000.0,54.0,51.0,36.0,85.0,55.0,99.0,61.0,58.0,Dagger,0
Gnome,Sorcerer,404000.0,59.0,96.0,29.0,64.0,3.0,11.0,73.0,52.0,Crossbow,2
Gnome,Ranger,906000.0,27.0,46.0,44.0,87.0,2.0,48.0,47.0,73.0,Bow,0
Elf,Ranger,95000.0,10.0,90.0,44.0,94.0,97.0,9.0,36.0,84.0,Bow,0
Gnome,Sorcerer,360000.0,82.0,81.0,49.0,49.0,49.0,92.0,34.0,51.0,Crossbow,2
Dwarf,Necromancer,81000.0,23.0,66.0,73.0,34.0,7.0,39.0,14.0,38.0,Hammer,1
Elf,Mage,952000.0,61.0,29.0,40.0,92.0,40.0,94.0,59.0,82.0,Staff,3
Ork,Bard,769000.0,63.0,45.0,98.0,44.0,40.0,32.0,37.0,10.0,Hammer,1
Ork,Mage,986000.0,72.0,91.0,90.0,36.0,52.0,64.0,30.0,89.0,Staff,3
Elf,Ranger,194000.0,49.0,76.0,37.0,95.0,95.0,87.0,96.0,75.0,Bow,0
Human,Druid,607000.0,43.0,53.0,65.0,63.0,58.0,13.0,8.0,59.0,Wand,2
Dwarf,Sorcerer,151000.0,26.0,83.0,81.0,52.0,16.0,28.0,3.0,54.0,Flail,2
Ork,Bard,708000.0,80.0,22.0,93.0,26.0,23.0,92.0,84.0,23.0,Mace,1
Halfling,Cleric,179000.0,94.0,86.0,49.0,70.0,53.0,28.0,84.0,65.0,Crossbow,2
Gnome,Ranger,1640000.0,65.0,82.0,45.0,92.0,85.0,10.0,89.0,59.0,Bow,0
Halfling,Bard,287000.0,19.0,29.0,54.0,85.0,46.0,45.0,97.0,56.0,Dagger,0
Dwarf,Rogue,548000.0,19.0,47.0,96.0,93.0,46.0,87.0,69.0,57.0,Dagger,0
Gnome,Druid,674000.0,46.0,42.0,40.0,51.0,51.0,62.0,90.0,56.0,Wand,2
Gnome,Sorcerer,1496000.0,77.0,62.0,23.0,50.0,12.0,77.0,37.0,55.0,Wand,2
Human,Druid,145000.0,94.0,74.0,63.0,56.0,94.0,12.0,16.0,66.0,Mace,1
Gnome,Rogue,74000.0,34.0,68.0,36.0,97.0,40.0,11.0,63.0,73.0,Dagger,0
Elf,Rogue,393000.0,39.0,97.0,33.0,81.0,32.0,53.0,70.0,79.0,Dagger,0
Ork,Druid,179000.0,51.0,46.0,80.0,36.0,29.0,36.0,29.0,21.0,Hammer,1
Halfling,Sorcerer,621000.0,30.0,94.0,50.0,78.0,69.0,65.0,71.0,78.0,Crossbow,2
Elf,Necromancer,710000.0,23.0,92.0,47.0,88.0,87.0,15.0,54.0,91.0,Staff,3
Human,Cleric,363000.0,13.0,67.0,58.0,40.0,15.0,37.0,18.0,62.0,Wand,2
Human,Bard,70000.0,12.0,34.0,52.0,53.0,46.0,86.0,7.0,54.0,Dagger,0
Gnome,Ranger,1886000.0,73.0,59.0,46.0,95.0,26.0,80.0,33.0,72.0,Bow,0
Gnome,Warrior,606000.0,9.0,77.0,93.0,61.0,97.0,53.0,71.0,61.0,Sword,5
Ork,Sorcerer,132000.0,35.0,43.0,93.0,33.0,46.0,88.0,32.0,10.0,Axe,1
Dwarf,Ranger,437000.0,14.0,91.0,85.0,99.0,67.0,89.0,71.0,40.0,Bow,0
Halfling,Ranger,859000.0,84.0,97.0,42.0,84.0,4.0,20.0,51.0,60.0,Bow,0
Elf,Warrior,984000.0,38.0,11.0,82.0,60.0,21.0,70.0,74.0,93.0,Sword,5
Human,Mage,805000.0,41.0,46.0,49.0,55.0,39.0,40.0,28.0,98.0,Staff,3
Human,Cleric,151000.0,30.0,30.0,54.0,40.0,49.0,76.0,53.0,47.0,Crossbow,2
Halfling,Druid,95000.0,3.0,77.0,42.0,84.0,61.0,12.0,91.0,67.0,Dagger,0
Gnome,Rogue,916000.0,97.0,15.0,29.0,88.0,76.0,28.0,4.0,61.0,Dagger,0
Gnome,Cleric,62000.0,37.0,18.0,45.0,69.0,93.0,72.0,95.0,64.0,Wand,2
Human,Rogue,230000.0,43.0,26.0,52.0,96.0,33.0,76.0,46.0,64.0,Dagger,0
Dwarf,Druid,650000.0,86.0,75.0,74.0,51.0,87.0,87.0,37.0,59.0,Axe,1
Ork,Druid,186000.0,46.0,33.0,97.0,56.0,76.0,23.0,32.0,16.0,Axe,1
Ork,Paladin,677000.0,65.0,1.0,96.0,29.0,78.0,18.0,43.0,21.0,Mace,1
Halfling,Necromancer,186000.0,34.0,41.0,56.0,60.0,88.0,64.0,37.0,59.0,Dagger,0
Gnome,Bard,1530000.0,14.0,8.0,47.0,65.0,26.0,23.0,75.0,75.0,Crossbow,2
Ork,Ranger,99000.0,80.0,71.0,99.0,86.0,64.0,37.0,11.0,22.0,Bow,0
Elf,Druid,524000.0,88.0,33.0,31.0,95.0,42.0,35.0,78.0,92.0,Bow,0
Gnome,Necromancer,1596000.0,34.0,11.0,42.0,59.0,25.0,76.0,9.0,53.0,Dagger,2
Human,Warrior,805000.0,6.0,54.0,87.0,40.0,92.0,57.0,98.0,40.0,Sword,5
Dwarf,Mage,379000.0,69.0,95.0,71.0,40.0,80.0,38.0,35.0,93.0,Staff,3
Elf,Rogue,67000.0,42.0,54.0,47.0,99.0,23.0,96.0,23.0,90.0,Dagger,0
Gnome,Warrior,76000.0,42.0,66.0,89.0,69.0,56.0,98.0,45.0,57.0,Sword,5
Halfling,Sorcerer,278000.0,36.0,65.0,30.0,63.0,68.0,12.0,31.0,62.0,Crossbow,2
Elf,Sorcerer,533000.0,33.0,88.0,41.0,61.0,37.0,88.0,72.0,75.0,Bow,0
Human,Ranger,430000.0,51.0,79.0,55.0,95.0,13.0,42.0,17.0,69.0,Bow,0
Ork,Ranger,259000.0,99.0,99.0,98.0,86.0,39.0,2.0,98.0,38.0,Bow,0
Elf,Paladin,569000.0,78.0,24.0,46.0,69.0,88.0,47.0,32.0,73.0,Staff,3
Ork,Mage,634000.0,83.0,27.0,93.0,48.0,58.0,19.0,49.0,82.0,Staff,3
Dwarf,Rogue,542000.0,23.0,67.0,90.0,91.0,10.0,21.0,5.0,33.0,Dagger,0
Elf,Mage,304000.0,60.0,88.0,35.0,76.0,77.0,20.0,69.0,94.0,Staff,3
Halfling,Necromancer,146000.0,71.0,98.0,44.0,67.0,54.0,79.0,45.0,55.0,Spear,4
Ork,Sorcerer,325000.0,98.0,75.0,84.0,38.0,67.0,27.0,49.0,33.0,Axe,1
Gnome,Druid,132000.0,14.0,48.0,47.0,41.0,96.0,51.0,10.0,65.0,Wand,2
Ork,Ranger,159000.0,59.0,20.0,84.0,95.0,76.0,15.0,78.0,23.0,Bow,0
Gnome,Paladin,1090000.0,97.0,39.0,34.0,59.0,26.0,73.0,66.0,75.0,Wand,2
Dwarf,Warrior,52000.0,45.0,89.0,93.0,37.0,65.0,12.0,97.0,46.0,Sword,5
Dwarf,Cleric,16000.0,79.0,98.0,75.0,48.0,89.0,43.0,20.0,45.0,Hammer,1
Halfling,Cleric,630000.0,30.0,55.0,50.0,64.0,27.0,54.0,92.0,57.0,Spear,4
Ork,Bard,475000.0,84.0,39.0,86.0,34.0,48.0,79.0,50.0,34.0,Hammer,1
Human,Druid,608000.0,70.0,62.0,45.0,59.0,25.0,76.0,2.0,54.0,Hammer,1
Halfling,Druid,378000.0,49.0,2.0,40.0,78.0,67.0,84.0,45.0,62.0,Spear,4
Ork,Mage,488000.0,58.0,9.0,90.0,38.0,27.0,43.0,6.0,80.0,Staff,3
Gnome,Druid,270000.0,18.0,26.0,22.0,43.0,18.0,53.0,81.0,70.0,Dagger,2
Halfling,Cleric,162000.0,15.0,44.0,36.0,61.0,12.0,77.0,11.0,51.0,Spear,4
Human,Necromancer,783000.0,78.0,86.0,58.0,69.0,55.0,48.0,34.0,43.0,Sword,5
Gnome,Paladin,1342000.0,30.0,29.0,42.0,67.0,89.0,81.0,30.0,71.0,Wand,2
Ork,Mage,507000.0,55.0,87.0,90.0,36.0,10.0,40.0,12.0,87.0,Staff,3
Halfling,Necromancer,295000.0,6.0,21.0,51.0,80.0,5.0,49.0,60.0,68.0,Spear,4
Gnome,Bard,1106000.0,53.0,68.0,27.0,63.0,90.0,55.0,27.0,58.0,Dagger,2
Elf,Druid,988000.0,41.0,84.0,24.0,98.0,83.0,40.0,49.0,77.0,Staff,3
Dwarf,Cleric,736000.0,5.0,65.0,79.0,51.0,22.0,72.0,74.0,36.0,Hammer,1
Gnome,Mage,1634000.0,31.0,56.0,38.0,49.0,52.0,98.0,3.0,80.0,Staff,3
Human,Bard,970000.0,49.0,18.0,54.0,58.0,88.0,45.0,73.0,67.0,Crossbow,2
Halfling,Mage,404000.0,36.0,70.0,53.0,80.0,96.0,81.0,24.0,80.0,Staff,3
Halfling,Mage,249000.0,82.0,57.0,43.0,82.0,98.0,54.0,15.0,90.0,Staff,3
Gnome,Bard,570000.0,46.0,92.0,43.0,68.0,80.0,50.0,66.0,50.0,Crossbow,2
Gnome,Mage,606000.0,50.0,57.0,47.0,68.0,91.0,29.0,34.0,97.0,Staff,3
Ork,Mage,668000.0,57.0,72.0,84.0,59.0,28.0,74.0,56.0,93.0,Staff,3
Dwarf,Mage,70000.0,69.0,9.0,89.0,44.0,20.0,22.0,60.0,89.0,Staff,3
Human,Sorcerer,656000.0,24.0,35.0,49.0,62.0,17.0,45.0,56.0,60.0,Crossbow,2
Human,Warrior,501000.0,1.0,65.0,96.0,46.0,80.0,89.0,43.0,64.0,Sword,5
Halfling,Mage,166000.0,9.0,73.0,46.0,74.0,69.0,66.0,38.0,98.0,Staff,3
Dwarf,Cleric,436000.0,90.0,13.0,98.0,46.0,79.0,28.0,69.0,38.0,Axe,1
Ork,Necromancer,537000.0,74.0,17.0,91.0,35.0,93.0,29.0,73.0,28.0,Axe,1
Dwarf,Warrior,877000.0,43.0,45.0,92.0,57.0,26.0,58.0,18.0,46.0,Sword,5
Gnome,Bard,1712000.0,16.0,28.0,46.0,45.0,18.0,51.0,95.0,56.0,Wand,2
Dwarf,Ranger,823000.0,52.0,65.0,90.0,80.0,3.0,25.0,11.0,46.0,Bow,0
Elf,Ranger,148000.0,91.0,48.0,47.0,87.0,44.0,34.0,4.0,92.0,Bow,0
Elf,Mage,600000.0,42.0,31.0,20.0,63.0,78.0,70.0,4.0,84.0,Staff,3
Gnome,Cleric,1460000.0,38.0,75.0,34.0,53.0,32.0,96.0,94.0,62.0,Crossbow,2
Halfling,Bard,39000.0,26.0,72.0,52.0,83.0,75.0,67.0,69.0,71.0,Crossbow,2
Gnome,Rogue,902000.0,27.0,93.0,32.0,84.0,11.0,45.0,78.0,71.0,Dagger,0
Dwarf,Bard,597000.0,48.0,91.0,75.0,49.0,77.0,50.0,8.0,40.0,Flail,2
Elf,Sorcerer,445000.0,66.0,70.0,43.0,73.0,10.0,53.0,15.0,87.0,Bow,0
Dwarf,Sorcerer,72000.0,60.0,59.0,83.0,33.0,15.0,44.0,54.0,42.0,Flail,2
Ork,Sorcerer,57000.0,98.0,4.0,95.0,25.0,31.0,13.0,56.0,22.0,Hammer,1
Ork,Paladin,579000.0,41.0,46.0,84.0,47.0,34.0,36.0,28.0,32.0,Mace,1
Dwarf,Rogue,610000.0,74.0,4.0,72.0,84.0,2.0,42.0,87.0,52.0,Dagger,0
Gnome,Druid,1350000.0,31.0,44.0,45.0,44.0,51.0,79.0,30.0,52.0,Dagger,2
Elf,Cleric,125000.0,36.0,61.0,32.0,93.0,43.0,21.0,89.0,75.0,Bow,0
Elf,Mage,341000.0,52.0,63.0,31.0,83.0,77.0,95.0,17.0,95.0,Staff,3
Halfling,Necromancer,829000.0,41.0,7.0,30.0,82.0,44.0,72.0,8.0,71.0,Crossbow,2
Elf,Cleric,69000.0,40.0,6.0,38.0,96.0,10.0,37.0,28.0,94.0,Staff,3
Elf,Mage,821000.0,50.0,4.0,23.0,99.0,38.0,9.0,12.0,91.0,Staff,3
Halfling,Cleric,577000.0,28.0,74.0,32.0,69.0,28.0,18.0,68.0,62.0,Crossbow,2
Elf,Druid,263000.0,35.0,2.0,45.0,88.0,47.0,81.0,56.0,92.0,Bow,0
Halfling,Cleric,723000.0,34.0,89.0,58.0,86.0,80.0,72.0,88.0,77.0,Crossbow,2
Gnome,Warrior,996000.0,68.0,11.0,90.0,68.0,48.0,75.0,25.0,57.0,Sword,5
Ork,Ranger,290000.0,52.0,61.0,93.0,81.0,63.0,34.0,78.0,26.0,Bow,0
Elf,Warrior,215000.0,45.0,33.0,88.0,89.0,29.0,82.0,14.0,95.0,Sword,5
Human,Rogue,596000.0,48.0,1.0,69.0,94.0,16.0,27.0,61.0,47.0,Dagger,0
Human,Druid,381000.0,57.0,23.0,49.0,50.0,54.0,78.0,84.0,55.0,Hammer,1
Human,Warrior,950000.0,73.0,27.0,84.0,43.0,90.0,22.0,34.0,46.0,Sword,5
Halfling,Sorcerer,536000.0,97.0,42.0,58.0,73.0,48.0,28.0,5.0,58.0,Spear,4
Human,Sorcerer,677000.0,82.0,3.0,53.0,59.0,38.0,65.0,91.0,46.0,Crossbow,2
Halfling,Rogue,317000.0,59.0,66.0,48.0,97.0,60.0,68.0,68.0,59.0,Dagger,0
Ork,Bard,391000.0,93.0,64.0,97.0,39.0,19.0,82.0,86.0,37.0,Mace,1
Ork,Necromancer,345000.0,55.0,39.0,85.0,34.0,69.0,31.0,66.0,17.0,Mace,1
Dwarf,Rogue,728000.0,77.0,26.0,82.0,80.0,34.0,40.0,92.0,40.0,Dagger,0
Elf,Druid,965000.0,51.0,15.0,30.0,68.0,14.0,85.0,37.0,99.0,Bow,0
Elf,Druid,102000.0,34.0,8.0,38.0,84.0,49.0,52.0,66.0,93.0,Dagger,0
Gnome,Paladin,336000.0,78.0,37.0,45.0,55.0,33.0,44.0,7.0,50.0,Dagger,2
Ork,Rogue,914000.0,1.0,59.0,89.0,86.0,37.0,56.0,43.0,11.0,Dagger,0
Dwarf,Rogue,916000.0,63.0,26.0,86.0,92.0,63.0,1.0,47.0,41.0,Dagger,0
Ork,Ranger,954000.0,86.0,84.0,82.0,93.0,92.0,83.0,66.0,34.0,Bow,0
Gnome,Paladin,326000.0,77.0,38.0,36.0,69.0,12.0,7.0,69.0,69.0,Wand,2
Halfling,Warrior,451000.0,91.0,85.0,99.0,83.0,7.0,33.0,71.0,64.0,Sword,5
Gnome,Paladin,1868000.0,80.0,19.0,26.0,52.0,2.0,22.0,23.0,54.0,Wand,2
Ork,Cleric,648000.0,17.0,31.0,94.0,20.0,34.0,81.0,55.0,37.0,Axe,1
Halfling,Necromancer,452000.0,43.0,48.0,36.0,78.0,52.0,82.0,67.0,55.0,Spear,4
Human,Ranger,664000.0,42.0,14.0,63.0,83.0,71.0,10.0,88.0,45.0,Bow,0
Ork,Druid,86000.0,8.0,3.0,83.0,36.0,64.0,9.0,75.0,19.0,Axe,1
Halfling,Ranger,642000.0,47.0,51.0,54.0,94.0,4.0,93.0,94.0,55.0,Bow,0
Human,Druid,309000.0,70.0,73.0,61.0,56.0,80.0,6.0,77.0,68.0,Sword,5
Ork,Warrior,850000.0,28.0,31.0,81.0,50.0,16.0,21.0,39.0,11.0,Sword,5
Gnome,Cleric,1538000.0,28.0,38.0,24.0,65.0,49.0,75.0,38.0,64.0,Dagger,2
Halfling,Warrior,463000.0,5.0,56.0,87.0,79.0,65.0,47.0,65.0,53.0,Sword,5
